{
  "App": {
    "Title": "Système d'entrée NOTAM"
  },
  "Breadcrumb": {
    "Home": "Accueil",
    "UserDashboard": "Tableau de bord utilisateur",
    "NofDashboard": "Tableau de bord NOF",
    "Index": "Indice",
    "NdsClient": "Abonnements"
  },
  "Pagination": {
    "Showing": "Montrant",
    "To": "à",
    "Off": "de",
    "Entries": "entrées"
  },
  "Common": {
    "ItemPerPage": "Items par page",
    "Ok": "OK",
    "Yes": "Oui",
    "No": "Non",
    "New": "Nouveau",
    "Save": "Sauvegarder",
    "Cancel": "Annuler",
    "View": "Voir",
    "Edit": "Modifier",
    "Warning": "Attention",
    "Replace": "Remplacer",
    "Start": "Début",
    "End": "Fin",
    "MMDDYYY": "MM/JJ/AAAA"
  },
  "NotamStatus": {
    "Draft": "Ébauche",
    "Submitted": "Soumis",
    "Rejected": "Rejeté",
    "Withdrawn": "Retirer",
    "Picked": "Sélectionné",
    "Parked": "Garé",
    "Disseminated": "Diffusé",
    "Expired": "Expiré",
    "Cancel": "Annuler",
    "Modified": "Modifié",
    "Cancelled": "Annulé"
  },
  "Reports": {
    "ExportCSV": "Exporter au CSV",
    "RunReport": "Exécuter rapport",
    "Statistics": "Statistiques",
    "Reports": "Rapports",
    "AggregateBy": "Agrégé par",
    "Totals": "Totaux",
    "Yearly": "Par année",
    "Monthly": "Par mois",
    "Weekly": "Par semaine",
    "Daily": "De jour",
    "Hourly": "Par heure",
    "PromptFilename": "Comment voulez-vous nommer votre fichier de sortie?"
  },
  "Dashboard": {
    "BoldHeader": "Utilisateur",
    "Header": "Tableau de bord",
    "ItemsPerPage": "Items par page",
    "Categories": "Catégories",
    "Subcategories": "Sous-catégories",
    "ProposalHistory": "Historique de la proposition",
    "NotamTrackingHistory": "Historique de Suivi des NOTAM",
    "DiscardProposal": "Rejeter la proposition",
    "DiscardProposalConfirmation": "Êtes-vous sûr de vouloir rejeter cette proposition de NOTAM?",
    "MessageDiscardSuccess": "La proposition de NOTAM a été rejetée avec succès.",
    "MessageDiscardFailure": "Erreur de rejet de la proposition NOTAM: ",
    "MessageSaveSuccess": "Un ébauche de la proposition NOTAM a été enregistré avec succès.",
    "MessageSaveFailure": "Erreur lors de l'enregistrement de la proposition de NOTAM: ",
    "MessageSubmitFailure": "Erreur lors de la soumission de la proposition NOTAM: ",
    "MessageParkFailure": "Erreur lors de l'exécution d'un garé de la proposition NOTAM: ",
    "MessageDisseminateFailure": "Erreur de diffusion de la proposition NOTAM: ",
    "MessageRejectFailure": "Une erreur est survenue et la proposition NOTAM a été rejetée: ",
    "MessageSaveAttachment1": "Tout ",
    "MessageSaveAttachment2": " les pièces jointes ont déjà été téléchargées sur le serveur.",
    "MessageSaveAttachment3": "La pièce jointe a déjà été téléchargée sur le serveur.",
    "MessageSaveAttachmentError": "Erreur lors de l'enregistrement de la pièce jointe: ",
    "MessageSaveAttachmentBrowser1": "Une erreur s'est produite avec le navigateur client: ",
    "MessageSaveAttachmentBrowser2": "Ce navigateur ne supporte pas les données de formulaire.",
    "MessageDeleteAttachmentError": "Erreur lors de la suppression de la pièce jointe: ",
    "MessageIcaoError": "Erreur OACI: ",
    "NOFBoldHeader": "Tableau de bord NOF",
    "NOFPending": "En attente",
    "NOFPark": "Garés",
    "NOFMessages": "Messages"
  },
  "ActionButtons": {
    "BtnCreate": "Créer",
    "BtnWidthdraw": "Retirer",
    "BtnReview": "Révisés",
    "BtnReplace": "Remplacer",
    "BtnPick": "Sélectionner",
    "BtnCancel": "Annuler",
    "BtnClone": "Cloner",
    "BtnHistory": "Historique",
    "BtnDiscard": "Rejeter",
    "BtnModify": "Modifier",
    "BtnYes": "Oui",
    "BtnNo": "Non",
    "BtnClose": "Fermer",
    "BackToReviewList": "Retour à la liste de vérification",
    "SaveDraft": "Sauvegarder ébauche",
    "SubmitProposal": "Soumettre la proposition",
    "ParkProposal": "Garer la proposition",
    "RejectProposal": "Rejeter la proposition",
    "DisseminateProposal": "Diffuser la proposition",
    "DiscardProposal": "Jeter la proposition",
    "GroupProposal": "Grouper les propositions",
    "BtnExclude": "Exclure",
    "BtnInclude": "Inclure",
    "CancelAnd": "Annuler & ",
    "Ok": "OK",
    "Delete": "Annuler",
    "Cancel": "Annuler",
    "BtnPending": "En attente",
    "BtnPark": "Garés",
    "BtnMessages": "Messages",
    "BtnNOTAMs": "NOTAMs",
    "BtnSubcriptions": "Abonnements",
    "BtnViewHistory": "Voir historique",
    "ZoomIn": "Zoom avant",
    "ZoomOut": "Zoom arrière",
    "Clear": "Effacer",
    "Add": "Ajouter",
    "Close": "Fermer",
    "Copy": "Copier",
    "GeoRef": "Georeference Tool"
  },
  "TableHeaders": {
    "Type": "Type",
    "Location": "Emplacement",
    "Subject": "Sujet",
    "Condition": "Condition",
    "StartActivity": "Début de l'activité",
    "ItemA": "Case A",
    "ItemE": "Case E",
    "EndValidity": "Fin de validité",
    "Received": "Reçu",
    "Status": "ST",
    "BetweenBiligual": "Between / Entre",
    "Between": "Entre",
    "AndBiligual": "And / Et",
    "And": "Et",
    "Designator": "Identification",
    "FullClosure": "Fermeture complète",
    "PartialClosure": "Fermeture partielle",
    "Closure": "Type de fermeture",
    "FileName": "Nom du fichier",
    "ByUser": "Par utilisateur",
    "Aprox": "Environ",
    "Est": "EST",
    "StartTime": "Temps du début",
    "EndTime": "Temps de la fin",
    "ActiveHours": "Heures actives",
    "EndActivity": "Fin de l'activité",
    "NotamType": "Type de NOTAM",
    "RefNotam": "ID NOTAM visé",
    "SiteID": "ID du Site",
    "Series": "Séries",
    "Permanent": "Permanent",
    "Estimated": "Estimé",
    "Operator": "Opérateur",
    "Originator": "Auteur",
    "Approver": "Approbateur",
    "Start": "Début",
    "End": "Fin",
    "Published": "Publié",
    "Creator": "Créateur",
    "NotamNumber": "No. NOTAM"
  },
  "Weekdays": {
    "Monday": "Lundi",
    "Tuesday": "Mardi",
    "Wednesday": "Mercredi",
    "Thursday": "Jeudi",
    "Friday": "Vendredi",
    "Saturday": "Samedi",
    "Sunday": "Dimanche"
  },
  "Switch": {
    "Yes": "Oui",
    "No": "Non",
    "Full": "Complète",
    "Radius": "Ray",
    "Location": "Loc",
    "NM": "NM",
    "FT": "FT"
  },
  "Nsd": {
    "ItemDText": "Item D (text)",
    "StartActivityD": "Début de l'activité",
    "EndActivityD": "Fin de l'activité",
    "Apply": "Appliquer",
    "Clear": "Effacer",
    "Override": "Outrepasser",
    "CreatePageTitle": "Créer",
    "RejectedReason": "Raison rejetée",
    "AeroNauticalSubCondHeader": "SUJET ET CONDITIONS AERONAUTIQUES",
    "ItemA": "Case A",
    "IcaoSubject": "Sujet OACI",
    "IcaoCondition": "Condition OACI",
    "AircraftRes": "Vous devez spécifier une restriction d'aéronef.",
    "AircraftRestrictions": "Restrictions d'aéronef",
    "AircraftWeight": "Poids maximal (lbs)",
    "AircraftWingSpan": "Envergure (FT)",
    "AvailAsTaxiway": "Disponibilité de la voie de circulation",
    "ClosureReason": "Raison de la fermeture",
    "EffectedRunway": "Piste affectée",
    "EffectedRunwayRequired": "La piste concernée est requise.",
    "ClosureReasonRequired": "Raison de la fermeture est nécessaire.",
    "EffectedAeroDrome": "Case A",
    "EffectedAeroDromeRequiredError": "L'aérodrome affecté est requis.",
    "InvalidRunway": "Une piste est nécessaire.",
    "Reason": "Raison de la fermeture",
    "Restrictions": "Identifiez les restrictions (langue anglaise)",
    "RestrictionsFr": "Identifier les restrictions (langue française)",
    "RunwayRestrictionsRequired": "Les restrictions de piste sont obligatoires.",
    "RwyClosureNotamScenario": "Scénario NOTAM de fermeture de piste",
    "Specify": "SPÉCIFIER LE ANGLAIS.",
    "SpecifyFr": "SPÉCIFIER LE FRANÇAIS",
    "TxyRestrictions": "Restrictions d'aire de circulation",
    "TxyRestrictionsReq": "Une description des restrictions de la voie de circulation est requise.",
    "TxyRestrictionsReqFr": "Restrictions de voie de circulation requises.",
    "AerodromeLocationDescription": "Localisation et description de l'aérodrome",
    "Status": "Statut",
    "SdoSubjectPlaceholder": "Commencez à taper pour rechercher ...",
    "CarsStatusPlaceholder": "Sélectionner un statut pour le NSD.",
    "StartHour": "Heure du début",
    "EndHour": "Heure de la fin",
    "DaylightSavingTime": "Heure avancée",
    "Everyday": "Tous les jours",
    "ClosureReasonLabel": "Raison (anglais)",
    "ClosureReasonLabelFr": "Raison (français)",
    "ClosureReasonLabelDesc": "Identifiez les restrictions (langue anglaise)",
    "ClosureReasonLabelDescFr": "Identifier les restrictions (langue française)",
    "StartClosure": "Debut",
    "StartClosureFr": "Debut",
    "EndClosure": "Fin",
    "EndClosureFr": "Fin",
    "AddReason": "Ajouter une raison?",
    "Grouped": "Groupé",
    "Proposals": "Propositions",
    "AddToGroup": "Ajouter au groupe.",
    "RemoveFromGroup": "Supprimer du groupe.",
    "ApplyChangesToGroup": "Appliquez les modifications au groupe.",
    "Nsd.Reason": "Raison de la fermeture",
    "ClosurePlaceholder": "Sélectionnez une raison de fermeture.",
    "TaxiwayPlaceholder": "Sélectionnez une voie de circulation.",
    "AllTaxiways": "TOUT TWYS",
    "Location": "Emplacement",
    "Radius": "Rayon",
    "LowerLimit": "Limite inférieure",
    "UpperLimit": "Limite supérieure",
    "ItemF": "Case F",
    "UnitOfMeasure": "Unité de mesure",
    "Surface": "Surface",
    "ItemG": "Case G",
    "Limit": "Limite",
    "Unlimited": "Illimitée",
    "Traffic": "Conditions de trafic",
    "Purpose": "Objet",
    "Scope": "Portée",
    "Series": "Série",
    "ICAOSubjectName": "Nom du sujet OACI",
    "ItemEDescription": "Description case E",
    "EnglishDescription": " (anglais)",
    "FrenchDescription": " (français)",
    "ItemEEn": "Case E (anglais)",
    "ItemEFr": "Case E (français)",
    "AerodromeName": "Nom de l'aérodrome",
    "ICAOSubjectPlaceholder": "Sélectionnez un sujet de OACI.",
    "ICAOConditionPlaceholder": "Sélectionnez une condition OACI.",
    "Latitude": "Latitude",
    "Longitude": "Longitude",
    "ObjectTypePlaceholder": "Sélectionnez un type d'objet.",
    "ObsLocation": "Emplacement de l'obstacle ",
    "Description": "Description",
    "ObsType": "Type d'obstacle",
    "Height": "Hauteur (FT AGL)",
    "Elevation": "Élévation (FT AMSL)",
    "Lighted": "Éclairé(e) ",
    "Painted": "Peint(e)",
    "ActivePeriod": "Période active",
    "StartActivity": "Début de l'activité",
    "Immediate": "Immédiatement?",
    "EndValidity": "Fin de validité",
    "Permanent": "Permanente?",
    "Schedule": "Horaire",
    "ItemD": "Case D)",
    "EnterItemD": "Entrez Case D.",
    "Estimated": "Estimée?",
    "ContactPerson": "Personne-contact",
    "OriginatorName": "Nom de l'auteur",
    "OnBehalfOf": "De la part de",
    "AditionalInformation": "Informations supplémentaires",
    "Attachments": "Les pièces jointes",
    "AttachmentsMsg": " (Disponible uniquement lorsque la proposition NOTAM a été enregistrée.)",
    "ChooseFiles": "Choisir fichiers",
    "NotesToNOF": "Notes au NOF",
    "Add": "Ajouter",
    "Delete": "Annuler",
    "Notes": "Notes...",
    "LocICAOPanel": "Informations et emplacement de l'OACI",
    "ICAOText": "Résumé de l'OACI",
    "ICAOFormat": "Format OACI",
    "PreviousICAOFormat": "Précédent OACI",
    "UnsavedChanges": "ATTENTION: vous perdrez toutes les mises à jour!",
    "LeavePage": "Êtes-vous sûr de vouloir quitter cette page?",
    "RjcReason": "Raison",
    "Reject": "Rejeter",
    "Close": "Fermée",
    "InvalidValueNotNaN": "La valeur n'est pas valide La valeur ne peut pas contenir de caractères.",
    "InvalidValueBigInt": "Le nombre que vous avez spécifié est trop grand.",
    "MapUnavailable": "La carte est indisponible.",
    "MObstMode": "Mode",
    "LocationFrom": "de",
    "LocationTo": "à",
    "InvalidRadius": "Le rayon est invalide.",
    "InvalidLocation": "L'emplacement est invalide.",
    "OtherDescriptionE": "Entrez une description pour le type d'obstacle.",
    "OtherDescriptionF": "Entrez une description du type d'obstacle.",
    "Units": "Unités",
    "ODescE": "Description",
    "ODescF": "La description",
    "Light": "Balisage lumineux",
    "Paint": "Peinture",
    "BallMarks": "Balisage sphérique",
    "LightValue0": "Inconnu",
    "LightValue1": "Éclairé(e) ",
    "LightValue2": "pas allumé",
    "PaintValue0": "Inconnu",
    "PaintValue1": "Peint(e)",
    "PaintValue2": "pas peint",
    "BallMarksValue0": "Inconnu",
    "BallMarksValue1": "Balisage sphérique en place",
    "BallMarksValue2": "Non-Standard manquant (Balisage sphérique est manquant)",
    "Priority": "Priorité",
    "AmendPubEn": "Modifiez publications",
    "AmendPubFr": "Modifiez publications",
    "AmendPubTextEn": "Modifier le texte de la publication.",
    "AmendPubTextFr": "Modifier le texte de la publication.",
    "Email": "Courriel",
    "Phone": "Numero de téléphone",
    "SaveOriginatorSuccess": "L'originateur a été enregistré.",
    "RemoveOriginatorSuccess": " L'originateur a été supprimé.",
    "WarningDate": "Les boutons Savegarder ébauche et Soumettre la proposition sont désactivés car les valeurs de début d'activité et de fin de validité ne sont pas valides. Modifier les dates de début et de fin.",
    "RemoveSchedule": "Êtes-vous sûr de vouloir supprimer l'horaire?",
    "ItemASelect": "Sélectionnez un aérodrome affecté",
    "SelectClosure": "Sélectionnez un type de fermeture",
    "RunwaySelect": "Sélectionnez une piste",
    "TaxiwayRestrictions": "[Taxiway Restrictions:]",
    "Taxiways": "Aire de circulation",
    "AreaDefinition": "[Area Definition]",
    "BufferedLine": "[Buffered Line]",
    "Polygon": "[Polygon]",
    "Buffer": "[Buffer]"
  },
  "IcaoText": {
    "Immediate": "IMMÉDIATEMENT",
    "DiseminatedNOTAMID": "Numéro du NOTAM diffusé",
    "Text": "Text",
    "FIR": "FIR",
    "Code": "Code",
    "Traffic": "Trafic",
    "Purpose": "Objet",
    "Scope": "Portée",
    "ItemA": "Case A",
    "LowerLimit": "Limite inférieure",
    "UpperLimit": "Limite supérieure",
    "Coords": "COORD",
    "Series": "Série",
    "Period": "Période",
    "Validity": "de validité",
    "From": "De",
    "To": "À",
    "TimeSchedule": "Horaire",
    "DTGroup": "groupe date-heure",
    "PERM": "PERM ou groupe date-heure",
    "IfApplicable": "le cas échéant",
    "PlainLanguage": "Langage clair",
    "Entry": "Entrée",
    "ICAOAbbreviations": "Abréviations de l'OACI",
    "ItemE": "Case E",
    "Format": "Format"
  },
  "NdsClient": {
    "PageTitleBold": "Client",
    "PageTitle": "Abonnement",
    "SubscriptionDetails": "Détails de l'abonnement",
    "ClientName": "Nom du client",
    "Address": "Adress",
    "Operator": "Opérateur",
    "ClientType": "Type de client",
    "Bilingual": "Est bilingue?",
    "BilingualHeader": "Bilingue",
    "AllowQueries": "Autoriser les requêtes?",
    "AllowQueriesHeader": "Autoriser les requêtes",
    "Series": "Souscrire par séries",
    "AllSeries": "Toutes les séries",
    "ItemA": " Case A",
    "AddClient": "Nouveau client",
    "DeleteClient": "Annuler client",
    "Updated": "Mis à jour",
    "EditClient": "Modifier client",
    "DeleteClientConfirmation": "Êtes-vous sûr de vouloir supprimer ce client?",
    "ValidateClientNameMinMaxLength": "Le nom du client doit contenir un minimum de 3 et un maximum de 100 caractères.",
    "ValidateClientNameRequired": "Un nom de client est requis.",
    "ValidateAddressMinMaxLength": "Un total de 8 caractères est requis.",
    "ValidateAddressRequired": "Une adresse est requise.",
    "ValidatePattern": "Seules les lettres A à Z sont autorisées.",
    "ValidateClientType": "Vous devez sélectionner au moins un type d'abonnement.",
    "ValidateItemAAndSeries": "Vous devez sélectionner une (ou plusieurs) série ou un (ou plusieurs) Case A.",
    "SuccessClientCreated": "Le client a été créé avec succès.",
    "FailureClientCreated": "Error adding a client.",
    "SuccessClientUpdated": "Le client a été mis à jour avec succès.",
    "FailureClientUpdated": "Erreur lors de la mise à jour d'un client.",
    "SuccessClientDeleted": "Le client a été supprimé avec succès.",
    "FailureClientDeleted": "Erreur lors de la suppression d'un client.",
    "SendNotams": "Envoyer des NOTAM",
    "SendNotamsConfirmation": "Vous êtes sur le point de diffuser TOUS les NOTAMS au (x) abonné (s) sélectionné (s).",
    "SendNotamsWarning": "Confirmez que vous souhaitez envoyer TOUS LES NOTAM.",
    "SendNotamsOk": "Job créé avec succès.",
    "SendNotamsError": "Erreur lors de la création du travail.",
    "DisableSubscription": "Actif",
    "Synced": "Synchronisé",
    "GeoRef": "GeoRef",
    "CreationSource": "Source de création",
    "FileContent": "Géographie:",
    "ChooseFile": "Choisissez fichier",
    "Points": "Points (Lat Long, Lat Long, ...)",
    "InvalidPoints": "Le polygone est invalide.",
    "Location": "Emplacement",
    "InvalidLocation": "L'emplacement est invalide.",
    "Radius": "Rayon:",
    "InvalidRadius": "La valeur du rayon n'est pas valide. La valeur doit être comprise entre 1 et 999.",
    "SelectSource": "Sélectionnez la région source.",
    "GeoSourceGeography": "Géographie",
    "GeoSourcePoints": "Points",
    "GeoSourcePointRadius": "Point et rayon",
    "FileSuccess": "Le fichier a été chargé avec succès.",
    "MessageSaveAttachmentError": "Erreur d'enregistrement du fichier: ",
    "MessageSaveAttachmentBrowser1": "Une erreur s'est produite avec le navigateur client: ",
    "MessageSaveAttachmentBrowser2": "Ce navigateur ne supporte pas FormData.",
    "RenderMapErrorTitle": "Erreur lors du rendu de la carte.",
    "RenderMapErrorMsg": "Erreur lors du rendu des GeoData sur la carte. Vérifiez vos données source.",
    "LowerLimit": "Limite inférieure",
    "UpperLimit": "Limite supérieure",
    "RequieredClientNameUnique": "Le nom de client pour abonnement doit être unique."
  },
  "MessageQueue": {
    "CreateMessage": "Créer un message",
    "ViewMessage": "Voir message",
    "ClientName": "Nom du client",
    "ClientAddress": "Adresse du client",
    "ClientType": "Type du client",
    "Address": "Adress",
    "OwnedBy": "Verrouillé par",
    "Code": "Code",
    "Date": "Date",
    "Status": "Statut",
    "Parked": "Garé",
    "Important": "Important",
    "Reply": "Répondre",
    "Deleted": "Supprimé",
    "Compose": "Composer",
    "Read": "Lire",
    "Message": "Message",
    "Send": "Envoyer",
    "MessageBody": "Texte du message",
    "FilterByStatus": "Filtrer par statut",
    "MessageOwnership": "Propriété du message",
    "Received": "Reçu",
    "Sent": "Envoyé",
    "Delivered": "Livré",
    "Modified": "Modifié",
    "PriorityCode": "Code de priorité",
    "BackToList": "Retour à la liste",
    "Template": "Modèle",
    "Originator": "Auteur",
    "Recipients": "Récipiendaires",
    "ParkMessage": "Garer le message",
    "UnparkMessage": "Non-Garer le message",
    "MarkImportantMessage": "Mention «important»",
    "MarkNotImportantMessage": "Mention «sans important»",
    "ReplyMessage": "Répondre au message",
    "DeleteMessage": "Mention «supprimé»",
    "UndeleteMessage": "Mention «sans supprimé»",
    "ComposeMessage": "Composer un message",
    "OriginatorRequiered": "Ce champ est requis.",
    "OriginatorInvalidFormat": "L'adresse doit contenir 8 caractères.",
    "RecipientsRequiered": "Ce champ est requis.",
    "RecipientsInvalidFormat": "L'adresse doit contenir 8 caractères et les adresses supplémentaires doivent être séparées par un point-virgule.",
    "MessageBodyRequired": "Un corps de message est requis.",
    "SelectTemplate": "Sélectionnez un modèle.",
    "SearchDialog": "Sélectionner un client: liste d'adresses globale",
    "DeleteMessageConfirmation": "Etes-vous sur de vouloir supprimer ce message?",
    "DiscardMessage": "Supprimer le message",
    "DiscardMessageConfirmation": "Êtes-vous sûr de vouloir supprimer ce message?",
    "SuccessMessageDeleted": "Le message a été marqué avec succès comme supprimé.",
    "FailureMessageDeleted": "Impossible de marquer le message comme supprimé.",
    "SuccessMessageParked": "Le message a été garé avec succès.",
    "SuccessMessageUnparked": "Le message a été sans-garé avec succès.",
    "FailureMessageParked": "Échec de l'archivage du message.",
    "FailureMessageStatusChange": "Échec de la modification du statut du message.",
    "SuccessMessageImportant": "Le message a été marqué avec succès comme important.",
    "SuccessMessageUnimportant": "Le message a été marqué avec succès comme non important.",
    "SuccessMessageUndeleted": "Le message a été déplacé avec succès dans la boîte de réception.",
    "FailureMessageImportant": "Impossible de marquer le message comme important.",
    "SuccessMessageSent": "Le message a été envoyé avec succès.",
    "FailureMessageSent": "Échec de l'envoi du message.",
    "FailureTemplateLoad": "Échec du chargement du modèle.",
    "ManageTemplates": "Gérer les modèles",
    "TakeOwnership1": "Ce message est déjà pris par:",
    "TakeOwnership2": "Vous n'êtes pas autorisé à prendre possession de ce message.",
    "Pending": "En attente",
    "Replied": "Répondu",
    "BackToMessages": "Retour aux messages",
    "Name": "Nom",
    "Created": "Créé",
    "DeleteTemplate": "Supprimer le modèle",
    "DeleteConfirm": "Êtes-vous sûr de vouloir supprimer ce modèle?",
    "CreateTemplate": "Crèer un modèle",
    "EditTemplate": "Modifier le modèle",
    "MessageTemplate": "Modèle de massage",
    "TemplateName": "Nom du modèle",
    "TemplateBody": "Corps de modèle",
    "TemplateNameRequired": "Un nom du modèle est requis",
    "TemplateBodyRequired": "Un corps de modèle est requis"
  },
  "Schedule": {
    "Daily": "Quotidiennement",
    "DaysOfWeek": "Jous de la semaine",
    "FreeText": "Texte libre",
    "StartingAt": "À partir de",
    "EndingAt": "Se terminant à",
    "Sunrise": "Lever du soleil",
    "Sunset": "Le coucher du soleil",
    "CrossMidnight": "Croix minuit",
    "Period": "Période",
    "ActiveHours": "Heures actives",
    "StartTime": "Temps du début",
    "EndTime": "Temps de la fin",
    "CalendarView": "Visualisation du calendrier",
    "DayOfWeek": "Jour de la semaine",
    "StartTimeHH": "Temps du début (HH:MM)",
    "EndTimeHH": "Temps de la fin (HH:MM)",
    "SetAsStartActivity": "Définir comme activité de début.",
    "SetAsEndActivity": "Définir comme activité de début.",
    "PeriodOfDays": "Période de jours",
    "StartActivity": "Début de l'activité",
    "EndActivity": "Fin de l'activité",
    "Format": "AAMMJJHHMM (UTC)",
    "InputTooShort": "Veuillez entrer 2 caractères ou plus"
  },
  "Filter": {
    "SearchBy": "RECHERCHÉ PAR",
    "SelectFilterCriteria": "Critères de filtrage...",
    "NotamId": "ID DE NOTAM",
    "ReferredNotamId": "ID DE NOTAM RÉFÉRÉNCÉ",
    "ItemA": "CASE A",
    "ItemE": "CASE E",
    "ProposalType": "TYPE DE PROPOSITION",
    "NotamType": "TYPE DE NOTAM",
    "Series": "SÉRIES",
    "Traffic": "CONDITION DE TRAFIC",
    "Scope": "SCOPE",
    "Code23": "CODE Q23",
    "Code45": "CODE Q45",
    "Purpose": "OBJECTIF",
    "Radius": "RAYON",
    "LowerLimit": "LIMITE MINIMALE",
    "UpperLimit": "LIMITE MAXIMALE",
    "Received": "DATE SOUMISE",
    "Published": "DATE PUBLIÉE",
    "StartActivity": "DÉBUT DE L'ACTIVITÉ",
    "EndValidity": "FIN DE L'ACTIVITÉ",
    "Originator": "AUTEUR",
    "Approver": "APPROBATEUR",
    "ModifiedByUsr": "OPÉRATEUR",
    "MatchingValue": "VALEUR CORRESPONDANTE",
    "ApplyFilter": "APPLIQUER FILTRE",
    "SaveFilter": "SAUVEGARDER FILTRE",
    "ClearFilter": "EFFACER FILTRE",
    "DeleteFilter": "SUPPRIMER FILTRE",
    "Equal": "ÉGAL À",
    "NotEqual": "NON ÉGAL À",
    "LessThan": "INFÉRIEUR À",
    "GreaterThan": "SUPÉRIEUR À",
    "LessThanOrEqual": "INFÉRIEUR OU ÉGAL À",
    "GreaterThanOrEqual": "SUPÉRIEUR OU ÉGAL À",
    "StartWith": "COMMENCE PAR",
    "EndWith": "SE TERMINE PAR",
    "Contains": "CONTIENT",
    "MatchValueRequired": "Une valeur de correspondance est requise.",
    "InvalidDateFormat": "Format de date et heure non valide (AAMMJJHHMM)].",
    "NumericValueRequired": "Une valeur numérique est requise.",
    "Active": "Actif",
    "Inactive": "Inactif",
    "All": "Tout",
    "NotesToNof": "NOTES AU NOFF"
  },
  "ErrorMsgs": {
    "MoreThan48HoursA": "L’heure de début des NOTAM est supérieure à 48 heures à partir de l’heure actuelle.",
    "SubjectRequired": "Un sujet est requis.",
    "DOAArea": "Une erreur s'est produite avec la zone géographique DOA: ",
    "StatusRequired": "Un statut est requis.",
    "StartHourNeeded": "Heure de début est requise.",
    "EndHourNeeded": "Heure de fin est requise.",
    "StartPointNeeded": "Le point de départ est requis.",
    "StartPointNeededFr": "Point de départ nécessaire.",
    "EndPointNeeded": "Le point final est requis.",
    "EndPointNeededFr": "Point final requis.",
    "SelecteOneTaxiway": "Vous devez sélectionner au moins une voie de circulation.",
    "ClosureReasonNeeded": "Vous devez spécifier une raison.",
    "ClosureReasonNeededFr": "Vous devez spécifier une raison.",
    "IcaoSubjectId": "Vous devez sélectionner au moins une option.",
    "SubjectLocation": "L'emplacement est invalide.",
    "RadiusRequired": "Le rayon est requis.",
    "RadiusInvalid": "Le rayon est invalide.",
    "LowerLimitRequired": "La limite inférieure est requise.",
    "LowerLimitInvalid": "La limite inférieure est invalide.",
    "LowerLimitRangeError": "La limite inférieure doit être inférieure à la limite supérieure.",
    "UpperLimitRequired": "La limite supérieure est requise.",
    "UpperLimitInvalid": "La limite supérieure est invalide.",
    "UpperLimitRangeError": "La limite supérieure doit être supérieure à la limite inférieure.",
    "ItemFMinInvalid": "La valeur minimale de Case F n'est pas valide.",
    "ItemFNotSmallerItemG": "La valeur de Case F doit être inférieure à celle de Case G.",
    "ItemFInputInvalid": "La valeur de Case F n'est pas valide.",
    "ItemGMinInvalid": "Case G n'est pas valide.",
    "ItemGNotSmallerItemF": "La valeur de Case G doit être supérieure à celle de Case F.",
    "ItemGInputInvalid": "La valeur de Case G n'est pas valide.",
    "TrafficRequired": "Une condition de circulation est requise.",
    "PurposeRequired": "L'objectif est requis.",
    "PurposeInvalid": "L'objectif est invalide. Il doit s'agir d'une des combinaisons valides suivantes: M, B, NB, BO ou NBO.",
    "ItemARequired": "Case A est requis.",
    "ItemAInvalid": "Case A est invalide.",
    "ItemAInvalidOnList": "Case A de la liste n'est pas valide.",
    "ItemARepeated": "Case A répété sur la liste.",
    "ItemAInvalidAdjFIR": "FIR adjacentes non valides.",
    "ICAOSubjectNameRequired": "Le nom de l'aérodrome est requis.",
    "ItemERequired": "Case E est requis.",
    "ItemEFRequired": "Le texte français pour Case E est requis.",
    "ItemENeedChange": "Case E doit être changé.",
    "ItemEFNeedChange": "Le texte français pour Case E doit être modifié.",
    "DOAGeoError": "Une erreur est survenue dans la zone géographique DOA: ",
    "ObsTypeRequired": "Un type d'obstacle est requis.",
    "ObsSelectOption": "Vous devez sélectionner au moins une option.",
    "LocationRequired": "L'emplacement est requis.",
    "LocationFormatInvalid": "Le format de l'emplacement est invalide.",
    "ValidatingLocation": "Maintenant en validant l'emplacement ...",
    "LocationOutRegion": "L'emplacement est en dehors de votre région.",
    "HeightRequired": "La hauteur est requise.",
    "InputInvalid": "L'entrée est invalide.",
    "ElevationRequired": "L'élévation est requise.",
    "UnexpectedError": "Une erreur inattendue s'est produite.",
    "InternalServerError": "Erreur de serveur interne: ",
    "StartActivityRequired": "La date de début de l'activité est requise.",
    "StartActivityFuture": "La date de début de l'activité doit être future.",
    "InvalidUTCFormat": "Le format de date UTC n'est pas valide. Assurez-vous que vous utilisez le bon format: (AAMMJJHHMM).",
    "StartActivityGreater": "L'activité de démarrage est supérieure à la valeur de la période de démarrage.",
    "EndValidityRequired": "Une date de fin de validité est requise.",
    "EndValidityFuture1min": "La date de fin de validité doit être au moins 1 minute à l'avance de la date de début de l'activité.",
    "EndValidityFutureMins": "La date de fin de validité doit être au moins {mvp} à l’avance à partir de la date de début de l’activité.",
    "EndValidityFuture30min": "La date de fin de validité doit être au moins 30 minutes à l'avance de la date de début de l'activité.",
    "EndValidityFuture92days": "La date de fin de validité ne doit pas dépasser 92 jours.",
    "OriginatorRequired": "Un créateur est requis.",
    "OriginatorFirstLetter": "Le créateur doit commencer par une lettre.",
    "EndActivityRequired": "L'activité finale est obligatoire.",
    "EndActivityDate": "La date de fin d'activité doit être postérieure à l'activité initiale",
    "StartActivityDate": "La date de début de l'activité doit être aujourd'hui ou plus tard.",
    "StartActivity": "Début de l'activité",
    "EndActivity": "Fin de l'activité",
    "StartingAt": "À partir de",
    "StartActivityDateStartTime": "Le temps est invalide; ce doit être après l'heure actuelle.",
    "LowerLimitNonNumeric": "Limite inférieure non valide (non numérique): la valeur doit être un nombre.",
    "LowerLimitLowerThanZero": "La limite inférieure doit être supérieure à 0.",
    "LowerLimitHigherThanMax": "La limite inférieure doit être inférieure ou égale à 998.",
    "InvalidLowerLimitRange": "La limite inférieure doit être inférieure à la limite supérieure",
    "UpperLimitNonNumeric": "Limite supérieure non valide (non numérique): la valeur doit être un nombre.",
    "UpperLimitLowerThanZero": "La limite supérieure doit être supérieure à 0.",
    "UpperLimitHigherThanMax": "La limite supérieure doit être inférieure ou égale à 999.",
    "InvalidUpperLimitRange": "La limite supérieure doit être supérieure à la limite inférieure.",
    "AddOriginatorError": "Une erreur eu lieu lors de l'ajout de l'utilisateur sélectionné à la liste Nom de l’originator.",
    "RemoveOriginatorError": "Une erreur eu lieu lors de la suppression de l'utilisateur sélectionné de la liste Nom de l’originator.",
    "StartApproaching": "La date de début d'activité est dans moins de 30 minutes."
  },
  "NofPick": {
    "TakeOwnershipError": " L’appropriation de cette proposition de NOTAM a échoué. ",
    "ProposalOwnership": " Propriété de la proposition NOTAM ",
    "ProposalOwnershipMsg1": "La propriété de cette proposition NOTAM est déjà prise par ",
    "ProposalOwnershipMsg2": " Êtes-vous sûr de vouloir prendre en charge cette proposition de NOTAM?",
    "ProposalOwnershipTaken": " Propriété de la proposition NOTAM prise par un autre opérateur NOF.",
    "ProposalOwnershipTakenMsg": " Cette proposition de NOTAM avait déjà été prise par un autre opérateur de NOF. Aucune de vos modifications ne sera sauvegardée."
  },
  "GeoRefTool": {
    "Title": "Référence géographique",
    "Warning": "pour reference approximative seulement",
    "Point": "Point",
    "TabTitle": "Outil géographique",
    "Location": "Emplacement",
    "Radius": "Rayon",
    "Points": "Points (Lat Long, Lat Long, ...)",
    "Calculate": "Calculer",
    "Aerodrome": "Aérodrome",
    "Ahp": "Ahp",
    "DataEntry": "Saisie des données",
    "MultiPoints": "Points multiples",
    "PointAndRadius": "Point central et rayon"
  },
  "RSC": {
    "CreateRSC": "Créer RSC",
    "ItemA": "Indicateur d'emplacement d'aéroport",
    "Touchdown": "SEUIL AVEC LE CHIFFRE DE DÉSIGNATION LE PLUS BAS",
    "Midpoint": "POINT MÉDIAN",
    "Rollout": "SEUIL AVEC LE CHIFFRE DE DÉSIGNATION LE PLUS HAUT",
    "Average": "MOYENNE",
    "ConditionsChangingRapidly": "Condition change rapidement",
    "Telephone": "Téléphone",
    "EnterTelephoneHere": "Entrer le numéro",
    "Extension": "Poste",
    "EnterExtensionHere": "Entrer le numéro",
    "RunwayConditions": "Conditions de piste",
    "Runways": "Piste en service",
    "Maintenance": "Maintenance",
    "GRF": "GRF",
    "ObservationTime": "Date et heure d'observattion (UTC)",
    "RemainingWidthRemarksTitle": "REMARQUES SUR LARGEUR RESTANTE DE PISTE",
    "WindrowsTitle": "CONGÈRES",
    "OtherConditionsTitle": "AUTRES CONDITIONS",
    "TwyRemarksTitle": "REMARQUES SUR AIRES DE CIRCULATION",
    "ApronRemarksTitle": "REMARQUES SUR AIRES DE TRAFIC",
    "RunwaysInReport": "Pistes dans le rapport",
    "Designator": "Indicateur",
    "Description": "Description",
    "Required": "Requise",
    "NoValidPhone": "Pas de numéro de téléphone valide",
    "NextScheduledObservation": "PROCHAINE OBSERVATION PRÉVUE",
    "GeneralRemarks": "REMARQUES GÉNÉRALES",
    "TextPlaceHolder": "Entrer remarques ici",
    "RunwaySelect": "Sélectionnez une piste"
  },
  "RemainingWidthRemarksComponent": {

  },
  "ClearedWidthComponent": {
    "ClearedWidthTitle": "LARGEUR DÉGAGÉE",
    "Select": "--- Choisir ---",
    "FULL": "PLEINE",
    "CENTRED": "CENTRÉE",
    "OFFSET": "DÉCALÉE",
    "Width": "Largeur",
    "Feet": "Pieds",
    "FeetOn": "pieds sur côté",
    "SideTo": "à",
    "Side": "pieds sur côté",
    "ErrorRunwayWidth": "[Width cleared higher than the Runway width]"
  },
  "ClearingOperationsComponent": {
    "ClearingOperationsTitle": "OPÉRATIONS DE DÉBLAIEMENT",
    "StartAt": "Début",
    "CompletedBy": "Achevées à",
    "Remarks": "Remarques",
    "ClearingUnderway": "[ClearingUnderway]"
  },
  "SnowBanksComponent": {
    "SnowBanksComponentTitle": "BANCS DE NEIGE",
    "Height": "Hauteur",
    "FromSide": "Du bord",
    "Feet": "Pieds",
    "Inches": "Pouces",
    "Distance": "Distance du bord extérieur de piste"
  },
  "TreatmentsComponents": {
    "TreatmentsComponentsTitle": "TRAITEMENTS",
    "TimeApplied": "Heure d'application",
    "Sand": "Sable",
    "ChemicallyTreated": "Traitement Chimique",
    "Remarks": "Remarques"
  },
  "ContaminantsComponent": {
    "SelectContaminant": "--- Choisir Contaminant ---",
    "SelectDepth": "Profondeur",
    "SelectCoverage": "Couverture",
    "SelectRwyCC": "--- RwyCC ---",
    "SelectRwyCCAction": "--- Validation du RWYCC ---",
    "CONTAMINANTS": "DESCRIPTION DE LA SURFACE DE LA PISTE",
    "Contaminant": "Contaminant",
    "Depth": "Profondeur",
    "Coverage": "Couverture",
    "RwyConditionCodeTitle": "CODE D'ÉTAT DE SURFACE DE PISTE",
    "Preliminary": "Préléminaire",
    "GenerateCC": "Générer CC",
    "CrfiFrictionTitle": "CRFI FRICTION",
    "Coefficient": "CRFI moyen",
    "SelectCoefficient": "-- CRFI --",
    "Temperature": "Température",
    "TimeUTC": "Date-heure (UTC)",
    "RwyConditionCodeFinalTitle": "CODE FINAL D'ÉTAT DE SURFACE DE PISTE",
    "Action": "Validation",
    "FinalRWYCC": "RWYCC FINAL",
    "ConfirmRWYCC": "Confirmer RWYCC",
    "DowngradeRWYCC": "Déclasser RWYCC",
    "UpgradeRWYCC": "Surclasser RWYCC",
    "ErrorCalculatingRWYCC": "Erreur dans le calcul du RYWCC"
  },
  "RwyFrictionComponent": {
    "RwyFrictionComponentTitle": "CRFI Moyen de surface de piste",
    "Coefficient": "CRFI Moyen",
    "SelectCoefficient": "-- CRFI --",
    "Temperature": "Température",
    "TimeUTC": "Date-heure (UTC)"
  },
  "UnitOfMeasurement": {
    "Inches": "Pouces",
    "Feet": "Pieds"
  },
  "ContaminantWithDepth": {
    "StandingWater": "Eau stagnante",
    "DrySnow": "Neige sèche",
    "WetSnow": "Neige mouillée",
    "Slush": "Neige fondante",
    "DrySnowOnTopOfIce": "Neige sèche sur glace",
    "WetSnowOnTopOfIce": "Neige mouillée sur glace",
    "SlushOnTopOfIce": "Neige fondante sur glace",
    "DrySnowOnTopOfCompactedSnow": "Neige sèche sur neige compactée",
    "WaterOnTopOfCompactedSnow": "Eau sur neige compactée",
    "WetSnowOnTopOfCompactedSnow": "Neige mouillée sur neige compactée"
  },
  "ContaminantWithNoDepth": {
    "Dry": "Sèche",
    "Wet": "Mouillée",
    "Frost": "Givre",
    "Ice": "Glace",
    "CompactedSnow20": "Neige compactée (-15 C ou moins)",
    "CompactedSnow10": "Neige compactée (plus chaud que -15 C)",
    "WetIce": "Glace mouillée",
    "CompactedSnowGravelMix": "Mélange de neige compactée et de gravier",
    "SlipperyWhenWet": "Glissante lorsque mouillée"
  },
  "MeasurementDevice": {
    "TapleyMeter": "Capteur Tapley",
    "JamesDecelerometer": "Décélomètre James",
    "Bowmonk": "Bowmonk",
    "DecelerometerTES": "Décélomètre TES"
  },
  "OCLocation": {
    "AlongInsideRedl": "Le Long Interieur Redl",
    "AlongInsideRwyEdge": "Le Long Interieur du Bord de Piste",
    "AlongClearedWidth": "Le Long de la Largeur Dégagée",
    "FMCL": "FM CL"
  },
  "OffsetSide": {
    "East": "Est",
    "SouthEast": "Sud-est",
    "South": "Sud",
    "SouthWest": "Sud-ouest",
    "West": "Ouest",
    "NorthWest": "Nord-ouest",
    "North": "Nord",
    "NorthEast": "Nord-est"
  },
  "CardinalValues": {
    "East": "E",
    "SouthEast": "SE",
    "South": "S",
    "SouthWest": "SO",
    "West": "O",
    "NorthWest": "NO",
    "North": "N",
    "NorthEast": "NE"
  },
  "OtherConditionsArea": {
    "IcePatches": "Plaques de glace",
    "CompactedSnowPatches": "Plaques de neige compactée",
    "StandingWaterPatches": "Plaques d'eau stagnante"
  },
  "OtherConditionsEdge": {
    "SnowDrifts": "Congères",
    "Windrows": "Andains",
    "SnowBanks": "Bancs de neige"
  },
  "Treatment": {
    "LoseSand": "Sable meuble",
    "Graded": "Damée",
    "Packed": "Nivelée",
    "ChemicallyTreated": "Traitement chimique",
    "Scarified": "Rayée"
  }
}